{
  "Type": "desktop-application",
  "ID": "org.kde.krita",
  "Name": {
    "eu": "Krita",
    "zh-TW": "Krita",
    "de": "Krita",
    "ia": "Krita",
    "pt": "Krita",
    "nn": "Krita",
    "pt-BR": "Krita",
    "gl": "Krita",
    "zh-CN": "Krita",
    "ru": "Krita",
    "el": "Krita",
    "uk": "Krita",
    "C": "Krita",
    "fr": "Krita",
    "sv": "Krita",
    "ca": "Krita",
    "sk": "Krita",
    "ko": "Krita",
    "es": "Krita",
    "ar": "كريتا",
    "it": "Krita",
    "tr": "Krita",
    "cs": "Krita",
    "id": "Krita",
    "fi": "Krita",
    "et": "Krita",
    "pl": "Krita",
    "en-GB": "Krita",
    "ca-valencia": "Krita",
    "nl": "Krita"
  },
  "Summary": {
    "eu": "Margolan digitala, sormen askatasuna",
    "zh-TW": "數位繪畫，創作自由",
    "de": "Digitales Malen, kreative Freiheit",
    "ia": "Pictura digital, Libertate creative",
    "pt": "Pintura Digital, Liberdade Criativa",
    "nn": "Digital teikning – kreativ fridom",
    "pt-BR": "Pintura digital, liberdade criativa",
    "gl": "Debuxo dixital, liberdade creativa",
    "zh-CN": "自由挥洒数字绘画的无限创意",
    "ru": "Цифровое рисование. Творческая свобода",
    "el": "Ψηφιακή ζωγραφική, δημιουργική ελευθερία",
    "uk": "Цифрове малювання, творча свобода",
    "fr": "Peinture numérique, liberté créatrice",
    "da": "Digital tegning, kunstnerisk frihed",
    "C": "Digital Painting, Creative Freedom",
    "ca": "Dibuix digital, Llibertat creativa",
    "sk": "Digitálne maľovanie, kreatívna sloboda",
    "sv": "Digital målning, kreativ frihet",
    "ko": "디지털 페인팅, 자유로운 창의성",
    "es": "Pintura digital, libertad creativa",
    "ar": "رسم رقميّ، حريّة إبداعيّة",
    "it": "Pittura digitale, libertà creativa",
    "tr": "Sayısal Boyama, Yaratıcı Özgürlük",
    "cs": "Digitální malování, svoboda tvorby",
    "id": "Pelukisan Digital, Kebebasan Berkreatif",
    "fi": "Digitaalimaalaus, luova vapaus",
    "bs": "Digitalno crtanje, kreativna sloboda",
    "et": "Digitaalne joonistamine, loominguline vabadus",
    "pl": "Cyfrowe malowanie, Wolność Twórcza",
    "en-GB": "Digital Painting, Creative Freedom",
    "ca-valencia": "Dibuix digital, Llibertat creativa",
    "nl": "Digital Painting, Creative Freedom"
  },
  "Description": {
    "eu": "<p>Krita arte lantegi digital osoa da.</p>\n<p>Zirriborratzeko eta margotzeko ezin hobea da, eta margolan digitalen fitxategiak hutsetik sortzeko muturretik-muturrera konponbide bat aurkezten du, maisuentzako mailakoa.</p>\n<p>Krita aukera bikaina da kontzeptuzko artea, komikiak, errendatzeko ehundurak eta «matte» margolanak sortzeko. Kritak kolore-espazio ugari onartzen ditu hala nola GBU eta CMYK, 8 eta 16 biteko osoko kanaletan, baita 16 eta 32 biteko koma-higikorreko kanaletan.</p>\n<p>Marrazten ondo pasa ezazu, isipu motor aurreratuekin, iragazki txundigarriekin eta eginbide praktiko ugariekin, zeintzuek Krita ikaragarri emankorra egiten duten.</p>",
    "zh-TW": "<p>Krita 是全功能的數位藝術工作室。</p>\n<p>它是素描和繪畫的完美選擇，並提供了一個從零開始建立數位繪畫檔的端到端解決方案。</p>\n<p>Krita 是創造概念藝術、漫畫、彩現紋理和場景繪畫的絕佳選擇。Krita 在 8 位元和 16 位元整數色版，以及 16 位元和 32 位元浮點色板中支援 RGB 和 CMYK 等多種色彩空間。</p>\n<p>使用先進的筆刷引擎、驚人的濾鏡和許多方便的功能來開心地繪畫，讓 Krita 擁有巨大的生產力。</p>",
    "ja": "<p>Krita は、フル機能を備えたデジタルなアートスタジオです。</p>\n<p>コンセプトアート、コミック、3DCG 用テクスチャ、マットペイントを制作する方にとって、Krita は最適な選択です。Krita は、8/16 ビット整数/チャンネル、および 16/32 ビット浮動小数点/チャンネルの RGB や CMYK をはじめ、さまざまな色空間をサポートしています。</p>\n<p>Krita のソフトウェアとしての生産性を高めている先進的なブラシエンジンや素晴らしいフィルタのほか、便利な機能の数々をお楽しみください。</p>",
    "de": "<p>Krita ist ein digitales Designstudio mit umfangreichen Funktionen.</p>",
    "ia": "<p>Krita es le studio de arte digital complete.</p>\n<p>Illo es perfecte pro schizzar e pinger, e presenta un solution ab fin al fin pro crear files de pictura digital ab grattamentos per maestros.</p>\n<p>Krita es un grande selection pro crear arte de concepto, comics, texturas pro rendering e picturas opac. Krita supporta multe spatios de colores como RGB e CMYK con canales de integer a  8 e 16 bits, como anque canales floating point a 16 e 32 bits.</p>\n<p>Amusa te a pinger con le motores de pincel avantiate, filtros stupende e multe characteristicas amical que face Krita enormemente productive.</p>",
    "pt": "<p>O Krita é o estúdio de arte digital completo.</p>\n<p>É perfeito para desenhos e pinturas, oferecendo uma solução final para criar ficheiros de pintura digital do zero por mestres.</p>\n<p>O Krita é uma óptima escolha para criar arte conceptual, banda desenhada, texturas para desenho e pinturas. O Krita suporta diversos espaços de cores como o RGB e o CMYK com canais de cores inteiros a 8 e 16 bits, assim como canais de vírgula flutuante a 16 e a 32 bits.</p>\n<p>Divirta-se a pintar com os motores de pincéis avançados, os filtros espantosos e muitas outras funcionalidades úteis que tornam o Krita altamente produtivo.</p>",
    "gl": "<p>Krita é un estudio completo de arte dixital.</p>\n<p>Resulta perfecto para debuxar e pintar, e presenta unha solución completa que permite aos mestres crear ficheiros de debuxo dixital desde cero.</p>\n<p>Krita é unha gran opción para crear arte conceptual, texturas para renderización e pinturas mate. Krita permite usar moitos espazos de cores como RGB e CMYK con canles de 8 e 16 bits, así como canles de coma flotante de 16 e 32 bits.</p>\n<p>Goza debuxando con motores de pincel avanzados, filtros fantásticos e moitas outras funcionalidades útiles que fan de Krita un programa extremadamente produtivo.</p>",
    "nn": "<p>Krita er ei funksjonsrik digital teiknestove.</p>\n<p>Passar perfekt for både teikning og måling, og dekkjer alle ledd i prosessen med å laga digitale måleri frå grunnen av.</p>\n<p>Krita er det ideelle valet dersom du vil laga konseptskisser, teikneseriar, teksturar for 3D-rendering eller «matte paintings». Programmet støttar fleire fargerom, både RGB- og CMYK-baserte, med 8- og 16-bits heiltals- eller flyttalskanalar.</p>\n<p>Leik deg med avanserte penselmotorar og fantastiske biletfilter – og mange andre nyttige funksjonar som gjer deg produktiv med Krita.</p>",
    "pt-BR": "<p>O Krita é o estúdio de arte digital completo.</p>\n<p>É perfeito para desenhos e pinturas, oferecendo uma solução final para criar arquivos de desenho digital feitos a partir do zero por mestres.</p>\n<p>O Krita é uma ótima escolha para criação de arte conceitual, histórias em quadrinhos, texturas para desenhos e pinturas. O Krita tem suporte a diversos espaços de cores como RGB e CMYK com canais de cores inteiros de 8 e 16 bits, assim como canais de ponto flutuante de 16 e 32 bits.</p>\n<p>Divirta-se pintando com os mecanismos de pincéis avançados, filtros maravilhosos e muitas outras funcionalidades úteis que tornam o Krita altamente produtivo.</p>",
    "zh-CN": "<p>Krita 是一款功能齐全的数字绘画工作室软件。</p>\n<p>它专门为数字绘画设计，为美术工作者提供了一个从起草、上色到完成作品等整个创作流程的完整解决方案。</p>\n<p>Krita 是绘制概念美术、漫画、纹理和接景的理想选择。Krita 支持多种色彩空间，如 8 位和 16 位整数及 16 位和 32 位浮点的 RGB 和 CMYK 颜色模型。</p>\n<p>Krita 具有功能强大的笔刷引擎、种类繁多的滤镜以及便于操作的交互设计，可让你尽情、高效地挥洒无限创意。</p>",
    "ru": "<p>Krita — полнофункциональный инструмент для создания цифровой графики.</p>\n<p>Она превосходно подходит для набросков и рисования, предоставляя мастерам самодостаточный инструмент для создания цифровой живописи с нуля.</p>\n<p>Krita — отличный выбор для создания концепт-артов, комиксов, текстур для рендеринга и рисования. Она поддерживает множество цветовых пространств включая RGB и CMYK с 8 и 16 целыми битами на канал, а также 16 и 32 битами с плавающей запятой на канал.</p>\n<p>Получайте удовольствие от использования особых кистевых движков, впечатляющих фильтров и множества других функций, делающих Krita сверхпродуктивной.</p>",
    "el": "<p>Το Krita είναι ένα πλήρες χαρακτηριστικών ψηφιακό ατελιέ.</p>\n<p>Είναι ιδανικό για σκιτσογραφία και ζωγραφική, και παρουσιάζει μια από άκρη σε άκρη λύση για τη δημιουργία από το μηδέν αρχείων ψηφιακης ζωγραφικής από τους δασκάλους της τέχνης.</p>\n<p>Το Krita είναι μια εξαιρετική επιλογή για τη δημιουργία αφηρημένης τέχνης, ιστοριών με εικόνες, υφής για ζωγραφική αποτύπωσης και διάχυσης φωτός. Το Krita υποστηρίζει πολλούς χρωματικούς χώρους όπως τα RGB και CMYK σε 8 και 16 bit κανάλια ακεραίων καθώς επίσης και σε 16 και 32 bit κανάλια κινητής υποδιαστολής,</p>\n<p>Διασκεδάστε ζωγραφίζοντας με τις προηγμένες μηχανές πινέλων, με εκπληκτικά φίλτρα και πολλά εύκολης χρήσης χαρακτηριστικά που παρέχουν στο Krita εξαιρετικά αυξημένη παραγωγικότητα.</p>",
    "fr": "<p>Krita est le studio d'art numérique complet.</p>\n<p>Il est parfait pour crayonner et peindre, et constitue une solution de bout en bout pour créer des fichier de peinture numérique depuis la feuille blanche jusqu'au épreuves finales.</p>\n<p>Krita est un très bon choix pour créer des concepts arts, des bandes-dessinées, des textures de rendu et des peintures. Krita prend en charge plusieurs espaces de couleurs comme RVB et CMJN avec les canaux de 8 et 16 bits entiers ainsi que les canaux de 16 et 32 bits flottants.</p>\n<p>Amusez-vous à peindre avec les outils de brosse avancés, les filtres incroyables et les nombreuses fonctionnalités pratiques qui rendent Krita extrêmement productif.</p>",
    "uk": "<p>Krita — повноцінний комплекс для створення цифрових художніх творів.</p>\n<p>Цей комплекс чудово пасує для створення ескізів та художніх зображень і є самодостатнім набором для створення файлів цифрових полотен «з нуля» для справжніх художників.</p>\n<p>Krita — чудовий інструмент для створення концептуального живопису, коміксів, текстур для моделей та декорацій. У Krita передбачено підтримку багатьох просторів кольорів, зокрема RGB та CMYK з 8-бітовими та 16-бітовими цілими значеннями, а також 16-бітовими та 32-бітовими значеннями з рухомою крапкою для каналів кольорів.</p>\n<p>Отримуйте задоволення від малювання за допомогою пензлів з найширшими можливостями, чудових фільтрів та багатьох зручних можливостей, які роблять Krita надзвичайно продуктивним засобом малювання.</p>",
    "C": "<p>Krita is the full-featured digital art studio.</p>\n<p>It is perfect for sketching and painting, and presents an end–to–end solution for creating digital painting files from scratch by masters.</p>\n<p>\n      Krita is a great choice for creating concept art, comics, textures for rendering and matte paintings. Krita supports\nmany colorspaces like RGB and CMYK\n      at 8 and 16 bits integer channels, as well as 16 and 32 bits floating point channels.\n    </p>\n<p>Have fun painting with the advanced brush engines, amazing filters and many handy features that make Krita enormously productive.</p>",
    "sv": "<p>Krita är den fullfjädrade digitala konststudion.</p>\n<p>Den är perfekt för att skissa och måla, samt erbjuder en helomfattande lösning för att skapa digitala målningsfiler från grunden av mästare.</p>\n<p>Krita är ett utmärkt val för att skapa concept art, serier, strukturer för återgivning och bakgrundsmålningar. Krita stöder många färgrymder som RGB och CMYK med 8- och 16-bitars heltal, samt 16- och 32-bitars flyttal.</p>\n<p>Ha det så kul vid målning med de avancerade penselfunktionerna, fantastiska filtren och många praktiska funktioner som gör Krita så enormt produktiv.</p>",
    "sk": "<p>Krita je plne vybavené digitálne umelecké štúdio.</p>\n<p>Je ideálna na skicovanie a maľovanie a poskytuje end-to-end riešenie na vytváranie súborov digitálneho maľovania od základu od profesionálov.</p>\n<p>Krita je výborná voľba pre vytváranie konceptového umenia, textúr na renderovanie a matné kresby. Krita podporuje mnoho farebných priestorov ako RGB a CMYK na 8 a 16 bitových celočíselných kanáloch ako aj 16 a 32 bitových reálnych kanáloch.</p>\n<p>Užívajte si maľovanie s pokročilými kresliacimi enginmi, úžasnými filtrami a mnohými užitočnými funkciami, ktoré robia Kritu veľmi produktívnu.</p>",
    "ca": "<p>El Krita és l'estudi d'art digital ple de funcionalitats.</p>\n<p>És perfecte per fer esbossos i pintar, i presenta una solució final per crear fitxers de dibuix digital des de zero per a mestres.</p>\n<p>El Krita és una gran elecció per crear art conceptual, còmics, textures per renderitzar i pintures «matte». El Krita permet molts espais de color com el RGB i el CMYK a 8 i 16 bits de canals sencers, així com 16 i 32 bits de canals de coma flotant.</p>\n<p>Gaudiu pintant amb els motors avançats de pinzells, filtres impressionants i moltes característiques útils que fan el Krita molt productiu.</p>",
    "ko": "<p>Krita는 디지털 예술 스튜디오입니다.</p>\n<p>스케치, 페인팅에 사용할 완벽한 도구이며, 생각으로부터 디지털 페인팅 파일을 만들어 낼 수 있는 종합적인 도구를 제공합니다.</p>\n<p>Krita는 컨셉 아트, 만화, 렌더링용 텍스처, 풍경화 등을 그릴 때 사용할 수 있는 완벽한 도구입니다. RGB, CMYK와 같은 여러 색 공간 및 8비트/16비트 정수 채널, 16비트/32비트 부동 소수점 채널을 지원합니다.</p>\n<p>Krita의 고급 브러시 엔진, 다양한 필터, 여러 도움이 되는 기능으로 생산성을 즐겁게 향상시킬 수 있습니다.</p>",
    "it": "<p>Krita è uno studio d'arte digitale completo.</p>\n<p>Perfetto per fare schizzi e dipingere, prevede una soluzione completa che consente agli artisti di creare file di dipinti digitali partendo da zero.</p>\n<p>Krita rappresenta una scelta ottimale per  la creazione di arte concettuale, fumetti e texture per il rendering e il matte painting. Krita supporta molti spazi colori come RGB e CMYK a 8 e 16 bit per canali interi e 16 e 32 bit per canali a virgola mobile.</p>\n<p>Divertiti a dipingere con gli avanzati sistemi di pennelli, i sorprendenti filtri e molte altre utili caratteristiche che fanno di Krita un software enormemente produttivo.</p>",
    "es": "<p>Krita es un estudio de arte digital completo</p>\n<p>Es perfecto para diseñar y pintar, y ofrece una solución completa para crear desde cero archivos de pintura digital apta para profesionales.</p>\n<p>Krita es una gran elección para crear arte conceptual, cómics, texturas para renderizar y «matte paintings». Krita permite el uso de muchos espacios de color, como, por ejemplo, RGB y CMYK, tanto en canales de enteros de 8 y 16 bits, así como en canales de coma flotante de 16 y 32 bits.</p>\n<p>Diviértase pintando con los avanzados motores de pinceles, los espectaculares filtros y muchas funcionalidades prácticas que hacen que Krita sea enormemente productivo.</p>",
    "tr": "<p>Krita, tam özellikli dijital sanat stüdyosudur.</p>\n<p>Eskiz ve boyama için mükemmeldir ve ustaların sıfırdan dijital boyama dosyaları oluşturmak için uçtan-uca bir çözüm sunar.</p>\n<p>Krita, konsept sanat, çizgi roman, kaplama ve mat resimler için dokular oluşturmak için mükemmel bir seçimdir. Krita, 8 ve 16 bit tamsayı kanallarında RGB ve CMYK gibi birçok renk alanını ve 16 ve 32 bit kayan nokta kanallarını desteklemektedir.</p>\n<p>Gelişmiş fırça motorları, şaşırtıcı filtreler ve Krita'yı son derece üretken yapan bir çok kullanışlı özellikli boya ile iyi eğlenceler.</p>",
    "id": "<p>Krita adalah studio seni digital yang penuh dengan fitur.</p>\n<p>Ini adalah sempurna untuk mensketsa dan melukis, dan menghadirkan sebuah solusi untuk menciptakan file-file pelukisan digital dari goresan si pelukis ulung.</p>\n<p>Krita adalah pilihan yang cocok untuk menciptakan konsep seni, komik, tekstur untuk rendering dan lukisan matte. Krita mendukung banyak ruang warna seperti RGB dan CMYK pada channel integer 8 dan 16 bit, serta channel floating point 16 dan 32 bit.</p>\n<p>Bersenang-senanglah melukis dengan mesin kuas canggih, filter luar biasa dan banyak fitur berguna yang membuat Krita sangat produktif.</p>",
    "fi": "<p>Krita on täyspiirteinen digitaiteen ateljee.</p>\n<p>Se on täydellinen luonnosteluun ja maalaukseen ja tarjoaa kokonaisratkaisun digitaalisten kuvatiedostojen luomiseen alusta alkaen.</p>\n<p>Krita on hyvä valinta konseptikuvituksen, sarjakuvien, pintakuvioiden ja maalausten luomiseen. Krita tukee useita väriavaruuksia kuten RGB:tä ja CMYK:ta 8 ja 16 bitin kokonaisluku- samoin kuin 16 ja 32 bitin liukulukukanavin.</p>\n<p>Pidä hauskaa maalatessasi edistyneillä sivellinmoottoreilla, hämmästyttävillä suotimilla ja monilla muilla kätevillä ominaisuuksilla, jotka tekevät Kritasta tavattoman tehokkaan.</p>",
    "bs": "<p>Krita je potpuni digitalni umjetnički studio.</p>\n<p>On je savršen za skiciranje i slikanje i predstavlja finalno rješenje za kreiranje digitalnih slika od nule s majstorima</p>\n<p>Krita je odličan izbor za kreiranje konceptualne umjetnosti, stripove, teksture za obradu i mat slike. Krita podržava mnoge prostore boja kao RGB i CMIK na 8 i 16 bitnim cjelobrojnim kanalimaa, kao i 16 i 32 bita floating point kanalima.</p>\n<p>Zabavite se kreirajući napredne pogone četki, filtere i mnoge praktične osobine koje čine Krita vrlo produktivnim.</p>",
    "et": "<p>Krita on rohkete võimalustega digitaalkunstistuudio.</p>\n<p>See on suurepärane töövahend visandite ja joonistuste valmistamiseks ning annab andekatele kunstnikele võimaluse luua digitaalpilt algusest lõpuni just oma käe järgi.</p>\n<p>Krita on üks paremaid valikuid kontseptuaalkunsti, koomiksite, tekstuuride ja digitaalmaalide loomiseks. Krita toetab paljusid värviruume, näiteks RGB ja CMYK 8 ja 16 täisarvulise bitiga kanali kohta, samuti 16 ja 32 ujukomabitiga kanali kohta.</p>\n<p>Joonistamise muudavad tunduvalt lõbusamaks võimsad pintslimootorid, imetabased filtrid ja veel paljud käepärased võimalused, mis muudavad Krita kasutaja tohutult tootlikuks.</p>",
    "en-GB": "<p>Krita is the full-featured digital art studio.</p>\n<p>It is perfect for sketching and painting, and presents an end–to–end solution for creating digital painting files from scratch by masters.</p>\n<p>Krita is a great choice for creating concept art, comics, textures for rendering and matte paintings. Krita supports many colourspaces like RGB and CMYK at 8 and 16 bits integer channels, as well as 16 and 32 bits floating point channels.</p>\n<p>Have fun painting with the advanced brush engines, amazing filters and many handy features that make Krita enormously productive.</p>",
    "ca-valencia": "<p>El Krita és l'estudi d'art digital ple de funcionalitats.</p>\n<p>És perfecte per fer esbossos i pintar, i presenta una solució final per crear fitxers de dibuix digital des de zero per a mestres.</p>\n<p>El Krita és una gran elecció per crear art conceptual, còmics, textures per renderitzar i pintures «matte». El Krita permet molts espais de color com el RGB i el CMYK a 8 i 16 bits de canals sencers, així com 16 i 32 bits de canals de coma flotant.</p>\n<p>Gaudiu pintant amb els motors avançats de pinzells, filtres impressionants i moltes característiques útils que fan el Krita molt productiu.</p>",
    "pl": "<p>Krita jest pełnowymiarowym, cyfrowym studiem artystycznym</p>\n<p>Nadaje się perfekcyjnie do szkicowania i malowania i dostarcza zupełnego rozwiązania dla tworzenia plików malowideł cyfrowych od zalążka.</p>\n<p>Krita jest świetnym wyborem przy tworzeniu koncepcyjnej sztuki, komiksów, tekstur do wyświetlania i kaszet. Krita obsługuje wiele przestrzeni barw takich jak RGB oraz CMYK dla kanałów 8 oraz 16 bitowych wyrażonych w l. całkowitych, a także  16 oraz 32 bitowych wyrażonych w l. zmiennoprzecinkowych.</p>\n<p>Baw się przy malowaniu przy użyciu zaawansowanych silników pędzli, zadziwiających filtrów i wielu innych przydatnych cech, które czynią z Krity bardzo produktywną.</p>",
    "nl": "<p>Krita is de digitale kunststudio vol mogelijkheden.</p>\n<p>Het is perfect voor schetsen en schilderen en zet een end–to–end oplossing voor het maken van digitale bestanden voor schilderingen vanuit het niets door meesters.</p>\n<p>Krita is een goede keuze voor het maken van kunstconcepten, strips, textuur voor weergeven en matte schilderijen. Krita ondersteunt vele kleurruimten zoals RGB en CMYK in 8 en 16 bits kanalen met gehele getallen, evenals 16 en 32 bits kanalen met drijvende komma.</p>\n<p>Veel plezier met schilderen met the geavanceerde penseel-engines, filters vol verbazing en vele handige mogelijkheden die maken dat Krita enorm productief is.</p>"
  },
  "DeveloperName": {
    "uk": "Фундація Krita",
    "es": "Fundación Krita",
    "sv": "Krita-stiftelsen",
    "zh-TW": "Krita 基金會",
    "sk": "Nadácia Krita",
    "en-GB": "Krita Foundation",
    "ca": "Fundació Krita",
    "it": "Fondazione Krita",
    "ca-valencia": "Fundació Krita",
    "tr": "Krita Vakfı",
    "de": "Krita Foundation",
    "fr": "La Fondation Krita",
    "et": "Krita sihtasutus",
    "pl": "Fundacja Krity",
    "ia": "Krita Foundation (Fundatiomn de Krita)",
    "fi": "Krita Foundation",
    "C": "Krita Foundation",
    "id": "Asas Krita",
    "cs": "Krita Foundation",
    "nn": "Krita Foundation",
    "pt": "Fundação do Krita",
    "eu": "Krita Fundazioa",
    "pt-BR": "Krita Foundation",
    "zh-CN": "Krita 基金会",
    "ko": "Krita Foundation",
    "nl": "Krita Foundation",
    "gl": "Fundación Krita"
  },
  "ProjectGroup": "KDE",
  "ProjectLicense": "GPL-3.0-only",
  "Categories": [
    "Graphics"
  ],
  "Url": {
    "homepage": "https://www.krita.org/",
    "help": "https://docs.krita.org/",
    "bugtracker": "https://docs.krita.org/en/untranslatable_pages/reporting_bugs.html",
    "faq": "https://docs.krita.org/KritaFAQ.html",
    "donation": "https://krita.org/support-us/donations/"
  },
  "Launchable": {
    "desktop-id": [
      "org.kde.krita.desktop"
    ]
  },
  "Provides": {
    "binaries": [
      "krita"
    ],
    "ids": [
      "org.kde.krita.desktop"
    ]
  },
  "Screenshots": [
    {
      "default": true,
      "caption": {
        "ca": "El Krita és un estudi de pintura digital ple de funcionalitats",
        "es": "Krita es un completo estudio de dibujo digital",
        "pt": "O Krita é um estúdio de arte digital completo",
        "ko": "Krita는 다기능 디지털 예술 스튜디오입니다",
        "en-GB": "Krita is a full-featured digital painting studio",
        "ca-valencia": "El Krita és un estudi de pintura digital ple de funcionalitats",
        "nl": "Krita is een digitale schilderstudio vol mogelijkheden",
        "pt-BR": "O Krita é um estúdio de pintura digital completo",
        "sv": "Krita är en fullfjädrad digital konststudio",
        "zh-CN": "Krita 是一款功能齐全的数字绘画工作室软件",
        "eu": "Krita pintura-digital lantegi osoa bat da",
        "C": "Krita is a full-featured digital painting studio",
        "et": "Krita on rohkete võimalustega digitaalkunstistuudio",
        "uk": "Krita — повноцінний комплекс для цифрового малювання"
      },
      "thumbnails": [
        {
          "url": "/thumbnails/org.kde.krita/2018-03-17_screenshot_001.png",
          "width": 720
        }
      ],
      "source-image": {
        "url": "https://cdn.kde.org/screenshots/krita/2018-03-17_screenshot_001.png"
      }
    },
    {
      "default": true,
      "caption": {
        "ca": "La finestra d'inici també ofereix les últimes notícies sobre el Krita",
        "es": "La ventana de bienvenida también le proporciona ahora las últimas noticias sobre Krita",
        "pt": "A janela inicial agora também lhe dá as últimas notícias sobre o Krita",
        "ko": "시작 창에서 Krita의 최신 소식을 볼 수 있습니다",
        "en-GB": "The startup window now also gives you the latest news about Krita",
        "ca-valencia": "La finestra d'inici també ofereix les últimes notícies sobre el Krita",
        "nl": "Het opstartvenster geeft u nu ook you het laatste nieuws over Krita",
        "pt-BR": "A janela de inicialização agora também mostra as últimas notícias sobre o Krita",
        "sv": "Startfönstret ger nu också senaste nytt om Krita",
        "zh-CN": "启动画面现在可以展示 Krita 的最新资讯",
        "eu": "Abioko leihoak orain Krita-ri buruzko albiste berrienak ematen dizkizu",
        "C": "The startup window now also gives you the latest news about Krita",
        "et": "Käivitusaken jagab nüüd ka Krita värskemaid uudiseid",
        "uk": "У початковому вікні програми ви можете бачити найсвіжіші новини щодо Krita"
      },
      "thumbnails": [
        {
          "url": "/thumbnails/org.kde.krita/2018-03-17_screenshot_002.png",
          "width": 720
        }
      ],
      "source-image": {
        "url": "https://cdn.kde.org/screenshots/krita/2018-03-17_screenshot_002.png"
      }
    },
    {
      "default": true,
      "caption": {
        "ca": "Hi ha més de deu motors de pinzell immensament potents",
        "es": "Existen unos diez inmensamente potentes motores de pinceles",
        "pt": "Existem mais de dez motores de pincéis extremamente poderosos",
        "ko": "10가지 종류의 강력한 브러시 엔진을 사용할 수 있습니다",
        "en-GB": "There are over ten immensely powerful brush engines",
        "ca-valencia": "Hi ha més de deu motors de pinzell immensament potents",
        "nl": "Er zijn meer dan tien immens krachtige penseelengines",
        "pt-BR": "Mais de dez engines de pincéis incrivelmente poderosos disponíveis",
        "sv": "Det finns mer än tio enormt kraftfulla penselgränssnitt",
        "zh-CN": "它具备十几种功能强大的笔刷引擎",
        "eu": "Hamarretik gora isipu motor ikaragarri ahaltsu daude",
        "C": "There are over ten immensely powerful brush engines",
        "et": "Üle kümne ääretult võimeka pintslimootori",
        "uk": "У програмі передбачено понад десяток надзвичайно потужних рушіїв пензлів"
      },
      "thumbnails": [
        {
          "url": "/thumbnails/org.kde.krita/2018-03-17_screenshot_003.png",
          "width": 720
        }
      ],
      "source-image": {
        "url": "https://cdn.kde.org/screenshots/krita/2018-03-17_screenshot_003.png"
      }
    },
    {
      "default": true,
      "caption": {
        "ca": "Creeu i useu màscares de gamma per donar a les imatges una aparença coherent",
        "es": "Cree y use gamas para proporcionar a sus imágenes un aspecto coherente",
        "pt": "Crie e use máscaras de gamute para dar às suas imagens uma aparência coerente",
        "ko": "색역 마스크를 만들고 사용할 수 있습니다",
        "en-GB": "Create and use gamut masks to give your images a coherent feel",
        "ca-valencia": "Creeu i useu màscares de gamma per donar a les imatges una aparença coherent",
        "nl": "Maak en gebruik gamut-maskers om uw afbeeldingen een coherent gevoel te geven",
        "pt-BR": "Crie e use máscaras de gama para dar um senso de coerência às suas imagens",
        "sv": "Att skapa och använda färgomfångsmasker ger bilder en sammanhängande känsla",
        "zh-CN": "它支持创建并使用色域蒙版，可以为图像带来更加一致的观感",
        "eu": "Sortu eta erabili gama-maskarak zure irudiei izaera koherentea emateko",
        "C": "Create and use gamut masks to give your images a coherent feel",
        "et": "Värviulatuse maskide loomine ja kasutamine piltidele kooskõlalise välimuse andmiseks",
        "uk": "Створюйте маски палітри і користуйтеся ними для надання вашим малюнкам однорідного вигляду"
      },
      "thumbnails": [
        {
          "url": "/thumbnails/org.kde.krita/2018-03-17_screenshot_004.png",
          "width": 720
        }
      ],
      "source-image": {
        "url": "https://cdn.kde.org/screenshots/krita/2018-03-17_screenshot_004.png"
      }
    },
    {
      "default": true,
      "caption": {
        "ca": "Esteu amb animacions? El Krita proporciona tot el que cal per a l'animació a mà tradicional",
        "es": "¿Trabaja con animación? Krita proporciona todo lo necesario para la animación manual tradicional",
        "pt": "Gosta de animação? O Krita oferece tudo o que precisa para o desenho animado tradicional e desenhado à mão",
        "ko": "애니메이션을 만들 계획이 있으신가요? Krita를 통해서 수작업 애니메이션을 작업할 수 있습니다",
        "en-GB": "Into animation? Krita provides everything you need for traditional, hand-drawn animation",
        "ca-valencia": "Esteu amb animacions? El Krita proporciona tot el que cal per a l'animació a mà tradicional",
        "nl": "Naar animatie? Krita biedt alles wat u nodig hebt voor traditionele, met de hand getekende animatie",
        "pt-BR": "Curte animação? O Krita fornece tudo necessário para você poder trabalhar com animação tradicional ou feita à mão",
        "sv": "Gillar du animering? Krita tillhandahåller allt som behövs för traditionella, handritade animeringar",
        "zh-CN": "喜欢制作动画吗？Krita 提供了制作传统手绘动画的全套工具",
        "eu": "Animaziorako? Krita-k ohiko eskuz-marraztutako animazioetarako behar duzun guztia dakar",
        "C": "Into animation? Krita provides everything you need for traditional, hand-drawn animation",
        "et": "Sind huvitab animatsioon? Krita pakub kõike, mida läheb tarvis traditsioonilise käsitsi loodud animatsiooni jaoks",
        "uk": "Працюєте із анімацією? У Krita ви знайдете усе, що потрібно для створення традиційної, намальованої вручну анімації"
      },
      "thumbnails": [
        {
          "url": "/thumbnails/org.kde.krita/2018-03-17_screenshot_005.png",
          "width": 720
        }
      ],
      "source-image": {
        "url": "https://cdn.kde.org/screenshots/krita/2018-03-17_screenshot_005.png"
      }
    },
    {
      "default": true,
      "caption": {
        "ca": "Si sou nou a la pintura digital, hi ha un manual extens i actualitzat",
        "es": "Si está empezando con el dibujo digital, dispone de un extenso y actualizado manual",
        "pt": "Se é novo na pintura digital, ou deseja saber mais sobre as possibilidades do Krita, existe um manual extenso e actualizado",
        "ko": "디지털 페인팅을 처음 시작하시거나, Krita의 기능을 더 알아 보려면 사용 설명서를 참조하십시오",
        "en-GB": "If you're new to digital painting, there's an extensive, up-to-date manual",
        "ca-valencia": "Si sou nou a la pintura digital, hi ha un manual extens i actualitzat",
        "nl": "Als u nieuw bent in digitaal schilderen, dan is er een uitgebreide, bijgewerkte handleiding.",
        "pt-BR": "Se você for iniciante em pintura digital, há um extenso e atualizado manual",
        "sv": "Om digital målning är nytt för dig, finns en omfattande, aktuell handbok",
        "zh-CN": "如果你是数字绘画的初学者，我们还准备了内容详尽，及时更新的使用手册",
        "eu": "Pintura digitalean berria bazara, gaurkotutako eskuliburu zabal bat dago",
        "C": "If you're new to digital painting, there's an extensive, up-to-date manual",
        "et": "Kui oled digitaalkunstis alles uustulnuk, on meil välja pakkuda mahukas ajakohane käsiraamat",
        "uk": "Якщо ви не маєте достатнього досвіду у цифровому малюванні, скористайтеся нашим докладним і актуальним підручником"
      },
      "thumbnails": [
        {
          "url": "/thumbnails/org.kde.krita/2018-03-17_screenshot_006.png",
          "width": 720
        }
      ],
      "source-image": {
        "url": "https://cdn.kde.org/screenshots/krita/2018-03-17_screenshot_006.png"
      }
    }
  ],
  "Releases": [
    {
      "version": "4.2.9.0",
      "type": "stable",
      "unix-timestamp": 1585180800,
      "url": {
        "details": "https://krita.org/en/item/krita-4-2-9-released/"
      }
    },
    {
      "version": "4.2.8.0",
      "type": "stable",
      "unix-timestamp": 1574812800,
      "url": {
        "details": "https://krita.org/en/item/krita-4-2-8-released/"
      }
    },
    {
      "version": "4.2.7.1",
      "type": "stable",
      "unix-timestamp": 1574812800,
      "url": {
        "details": "https://krita.org/en/item/krita-4-2-7-released/"
      }
    }
  ],
  "ContentRating": {
    "oars-1.1": {
    }
  },
  "Custom": {
    "KDE::windows_store": "https://www.microsoft.com/store/apps/9n6x57zgrw96"
  },
  "X-KDE-ID": "org.kde.krita",
  "Icon": {
    "local": [
      {
        "name": "org.kde.krita.svg"
      }
    ]
  },
  "X-KDE-GenericName": {
    "C": "Digital Painting",
    "ar": "رسم رقمي",
    "bs": "Digitalno Bojenje",
    "ca": "Dibuix digital",
    "ca-valencia": "Dibuix digital",
    "cs": "Digitální malování",
    "da": "Digital tegning",
    "de": "Digitales Malen",
    "el": "Ψηφιακή ζωγραφική",
    "en-GB": "Digital Painting",
    "es": "Pintura digital",
    "et": "Digitaalne joonistamine",
    "eu": "Margolan digitala",
    "fi": "Digitaalimaalaus",
    "fr": "Peinture numérique",
    "gl": "Debuxo dixital",
    "hu": "Digitális festészet",
    "ia": "Pintura Digital",
    "is": "Stafræn málun",
    "it": "Pittura digitale",
    "ja": "デジタルペインティング",
    "kk": "Цифрлық сурет салу",
    "ko": "디지털 페인팅",
    "lt": "Skaitmeninis piešimas",
    "mr": "डिजिटल पेंटिंग",
    "nb": "Digital maling",
    "nl": "Digitaal schilderen",
    "nn": "Digital teikning",
    "pl": "Cyfrowe malowanie",
    "pt": "Pintura Digital",
    "pt-BR": "Pintura digital",
    "ru": "Цифровая живопись",
    "sk": "Digitálne maľovanie",
    "sl": "Digitalno slikanje",
    "sv": "Digital målning",
    "tr": "Sayısal Boyama",
    "ug": "سىفىرلىق رەسىم سىزغۇ",
    "uk": "Цифрове малювання",
    "x-test": "xxDigital Paintingxx",
    "zh-CN": "数字绘画",
    "zh-TW": "數位繪畫"
  },
  "X-KDE-Project": "extragear/graphics/krita",
  "X-KDE-Repository": "krita"
}